<svg xmlns="http://www.w3.org/2000/svg" width="22" height="24" viewBox="0 0 22 24">
    <g fill="none" fill-rule="evenodd">
        <path fill="#4A4A4A" fill-rule="nonzero" d="M16.556 13.749a10.963 10.963 0 0 0-16.112 0 .965.965 0 0 0-.25.639v3.833a.958.958 0 0 0 .959.946h14.694c.53 0 .959-.43.959-.959v-3.833a.965.965 0 0 0-.25-.626z"/>
        <circle cx="8.5" cy="4.472" r="4.472" fill="#4A4A4A" fill-rule="nonzero"/>
        <path fill="#FFF" fill-rule="nonzero" stroke="#FFF" stroke-width="4" d="M14.067 20.083l-2.926-3.048a.629.629 0 0 1 .03-.828.568.568 0 0 1 .795-.032l2.1 2.189 3.968-4.134a.568.568 0 0 1 .795.032c.216.225.23.586.03.828l-4.792 4.993z"/>
        <path fill="#F5A623" fill-rule="nonzero" d="M14.067 20.083l-2.926-3.048a.629.629 0 0 1 .03-.828.568.568 0 0 1 .795-.032l2.1 2.189 3.968-4.134a.568.568 0 0 1 .795.032c.216.225.23.586.03.828l-4.792 4.993zM19 12.083c1.792.903 3 2.609 3 4.564 0 1.867-1.101 3.506-2.76 4.436l-.028-1.06c1.125-.819 1.8-2.046 1.8-3.376 0-1.403-.753-2.69-1.984-3.504L19 12.083z"/>
        <path fill="#FFF" fill-rule="nonzero" stroke="#FFF" stroke-width="3" d="M10 12.083c-1.792.903-3 2.609-3 4.564 0 1.867 1.101 3.506 2.76 4.436l.028-1.06c-1.125-.819-1.8-2.046-1.8-3.376 0-1.403.753-2.69 1.984-3.504l.028-1.06z"/>
        <path fill="#F5A623" fill-rule="nonzero" d="M10 12.083c-1.792.903-3 2.609-3 4.564 0 1.867 1.101 3.506 2.76 4.436l.028-1.06c-1.125-.819-1.8-2.046-1.8-3.376 0-1.403.753-2.69 1.984-3.504l.028-1.06z"/>
    </g>
</svg>
